inops vignette
…
Departed and Landed between noon and 5 p.m.

Were not traveling to “LEX”, “PSP”, nor “HDN”

Travelled distance was either very short (below 100) or very long (above 3000)

Had a tail number starting with “N1” or “N3”

library(nycflights13)
library(dplyr)
library(inops)

flights <- select(flights, origin, dest, tailnum, dep_time, arr_time, distance)
flights
#> # A tibble: 336,776 x 6
#>    origin dest  tailnum dep_time arr_time distance
#>    <chr>  <chr> <chr>      <int>    <int>    <dbl>
#>  1 EWR    IAH   N14228       517      830     1400
#>  2 LGA    IAH   N24211       533      850     1416
#>  3 JFK    MIA   N619AA       542      923     1089
#>  4 JFK    BQN   N804JB       544     1004     1576
#>  5 LGA    ATL   N668DN       554      812      762
#>  6 EWR    ORD   N39463       554      740      719
#>  7 EWR    FLL   N516JB       555      913     1065
#>  8 LGA    IAD   N829AS       557      709      229
#>  9 JFK    MCO   N593JB       557      838      944
#> 10 LGA    ORD   N3ALAA       558      753      733
#> # ... with 336,766 more rows
…
